wokwi/wokwi.vcd
$version Generated by Wokwi.com $end
$date Fri, 29 May 2026 05:10:46 GMT $end
$timescale 1ns $end
$scope module logic $end
$var wire 1 ! D2 $end
$var wire 1 " D4 $end
$upscope $end
$enddefinitions $end
#0
0!
#0
0"
#216111775
1!
#216164419
0!
#216189744
1"
#216242388
0"
#216482063
1!
#217995238
1"
#314680525
0!
#414680650
1!
#514680525
0!
#614680650
1!
#714681094
0!
#714718144
0"
#814680650
1!
#914680525
0!
#1014680650
1!
#1114680525
0!
#1214681219
1!
#1214738481
1"
#1314680525
0!
#1414680650
1!
#1514680525
0!
#1614680650
1!
#1714681094
0!
#1714718019
0"
#1814680650
1!
#1914680525
0!
#2014680650
1!
#2114680525
0!
#2214681219
1!
#2214738481
1"
#2314680525
0!
#2414680650
1!
#2514680525
0!
#2614680650
1!
#2714681094
0!
#2714718019
0"
#2814680650
1!
#2914680525
0!
#3014680650
1!
#3114680525
0!
#3214681219
1!
#3214738481
1"
#3314680525
0!
#3414680650
1!
#3514680525
0!
#3549214319
0#
