wokwi/wokwi.vcd
$version Generated by Wokwi.com $end
$date Sat, 30 May 2026 03:46:28 GMT $end
$timescale 1ns $end
$scope module logic $end
$var wire 1 ! D2 $end
$var wire 1 " D4 $end
$upscope $end
$enddefinitions $end
#0
0!
#0
0"
#218840200
1!
#218892844
0!
#218918169
1"
#218970813
0"
#219297363
1!
#222760669
1"
#324540713
0"
#1224540838
1"
#1324540713
0"
#2224540838
1"
#2324540713
0"
#3224540838
1"
#3324540713
0"
#4224540838
1"
#4324540713
0"
#5224540838
1"
#5324540713
0"
#6224540838
1"
#6324540713
0"
#7224540838
1"
#7324540713
0"
#7517220485
1#
