wokwi/wokwi.vcd
$version Generated by Wokwi.com $end
$date Sat, 30 May 2026 03:31:48 GMT $end
$timescale 1ns $end
$scope module logic $end
$var wire 1 ! D2 $end
$var wire 1 " D4 $end
$upscope $end
$enddefinitions $end
#0
0!
#0
0"
#219276963
1!
#219329606
0!
#219354931
1"
#219407575
0"
#219734125
1!
#50059275525
1#
